name;phone/ip;cordX;cordY;map;serial;t_per;alx;aly;alz;pumps;conf2;comment
КНС-1;79267598671;0.51;0.28;1;1057;1440;;;;2;;
КНС-2;79684706466;0.31;0.43;2;1053;1440;;;;2;;
КНС-3;192.168.8.200;0.41;0.89;1;1040;1400;;;;2;;
КНС-4;192.168.8.199;0.7;0.82;1;1040;1400;;;;2;;

